Id,Energy_consumption
0,1842.459581890659
1,1182.4681037708701
2,986.2256752404437
3,3058.1788251466214
4,2766.6585560543012
5,1257.7226391334095
6,4494.32951057203
7,992.7703978487697
8,2094.4424588791503
9,2308.3849394693293
10,2550.5795586009904
11,1708.599628732501
12,2421.7346486540996
13,504.82520122425234
14,1760.9901495049
15,1213.0716699214622
16,2252.956030649163
17,3272.942227523845
18,686.0026683233925
19,3332.060748884622
20,2108.8426140079855
21,2546.509463043334
22,1154.0272380713684
23,1822.6779542566683
24,3508.5382542460493
25,3393.763618258781
26,1327.233760397021
27,3057.7316916914956
28,1774.840574631663
29,4305.125557360061
30,500.02670868072653
31,1903.6965680083124
32,3697.8899023876133
33,1270.637413086126
34,1889.9211051460456
35,1060.427667727909
36,1438.6006491985704
37,1899.5707538541578
38,1899.4370471404488
39,5364.68065977599
40,3689.740516705214
41,355.18085588004993
42,1207.7740179157288
43,3028.3624637305584
44,4229.675562089467
45,2588.307629889861
46,1126.8905201527891
47,1298.7420174452636
48,1831.5303821689017
49,3468.2737289393885
50,4162.417851414383
51,2517.0729850780895
52,800.2425691733741
53,2300.252376175218
54,2059.4792506805798
55,3008.82442821072
56,1605.9517775956149
57,2955.2249135381094
58,1281.7832048558487
59,2135.556853099329
60,2692.8306573958507
61,1419.8821638659651
62,2886.944853923599
63,3376.5734037746565
64,2226.1517349174396
65,1122.5171996909569
66,2289.045835846955
67,2898.4868716148353
68,603.3882559943634
69,1178.4195179262927
70,1954.501787812517
71,2231.388821733382
72,3083.165248343299
73,2910.8452146524232
74,4548.490961926544
75,1922.8174927170428
76,2348.6662467214383
77,915.5957714227148
78,4715.298576567669
79,1264.5618277842682
80,1113.1802535616007
81,3785.0552945337818
82,1484.4459294026692
83,1824.9867959379324
84,1568.0855825635094
85,625.4516535891105
86,1542.5485466748796
87,2406.254923617819
88,1241.6672212828828
89,955.5407796780322
90,2647.395286022519
91,1368.6918383537484
92,2309.8114927342144
93,941.1530357384805
94,2675.1629489535953
95,3693.4892850523843
96,2382.325158109694
97,1263.8997330713817
98,3936.932345708476
99,3616.2157368631697
100,1062.7907027323415
101,2373.4753504896275
102,4030.0415934671605
103,2414.0365375365495
104,952.3284153821663
105,3087.5662100500567
106,1071.1389974274841
107,1607.1079881103717
108,3597.049782494664
109,3895.5885180608702
110,3482.1660932666878
111,1894.9659827561115
112,3440.7487991186326
113,3448.652038382217
114,894.4164448514581
115,3118.7864525892205
116,3151.3614144889707
117,1775.797765902802
118,2380.6151557692747
119,1947.4212490904017
120,1480.9043200779583
121,369.37778646918156
122,1814.2307005364846
123,2806.5401593191086
124,476.6343739044285
125,3756.709049859988
126,2151.6082761098255
127,1405.535563076458
128,726.8177812745632
129,1725.6038392974556
130,1945.925172532766
131,1174.8585736069244
132,524.4520946276464
133,910.7581681455034
134,2483.7346244074483
135,2806.0985237213904
136,2221.6067480865363
137,2295.3974604618356
138,2237.744706467304
139,2848.9603300337917
140,820.2186373333881
141,1162.426376912658
142,916.3172735390705
143,4779.731605394879
144,2507.5569835350466
145,1845.4664151601285
146,770.448019610278
147,1244.5745090067435
148,1926.265709146579
149,2434.9236841593106
150,2984.738455031777
151,2512.7582289939005
152,593.7109534336454
153,3422.785136337479
154,3246.517117639766
155,1742.0083800545142
156,1318.8485462993417
157,1572.690331183334
158,2153.2812380198948
159,2073.680897915524
160,1709.956361226044
161,1738.1746449610384
162,1047.7306879751272
163,2966.45127040278
164,595.8843486464616
165,2075.789111812202
166,2595.2008128669704
167,1605.3875690019238
168,2451.836437775066
169,1006.2022623615005
170,1768.5250206745534
171,617.7087883363744
172,2985.629968676716
173,1267.3162407659022
174,3462.947717096123
175,4906.072112307526
176,914.8094881449217
177,2608.4422228171406
178,1292.8679341289653
179,2398.973428137099
180,2838.8418008576937
181,839.0399867353742
182,2274.0101630933364
183,2141.8423244080996
184,2025.5535481067236
185,4346.846475557117
186,1844.4574318728253
187,1468.0700145997748
188,2438.175897651693
189,1510.3194999414288
190,3521.1280076831395
191,1497.362743966585
192,718.6860243046076
193,2025.5905577288836
194,4198.557406790023
195,2193.3295174697523
196,764.7225495284565
197,3153.2691434607204
198,804.219051261253
199,2262.9282112265905
200,3416.7661708306455
201,1816.5242043656679
202,3141.1684357087947
203,1667.9784908093955
204,1671.1146504961894
205,3900.4964334511897
206,4581.858955645182
207,2117.2358051103565
208,452.41948447436465
209,1029.3835903241952
210,588.7065408200127
211,2125.6912032457253
212,4409.100690014456
213,1879.743888508135
214,1369.649146921617
215,1059.8211933522632
216,1012.9140962764307
217,427.9536751526029
218,1393.139585715008
219,517.8654079107174
220,376.22985346326305
221,2788.4200229085254
222,1611.1923967723462
223,1736.7106781229634
224,1163.186769525581
225,1341.938009366173
226,3437.1167752405977
227,5580.8651906652385
228,811.7925269509698
229,856.3188674084604
230,3936.0469260371397
231,383.89449621012375
232,4821.916487305783
233,1548.9973276988399
234,2777.1575374358276
235,2266.7635587018754
236,355.00462475947177
237,756.0517465592906
238,1965.9752674539109
239,2268.616160891087
240,2308.1201703353554
241,3413.05103518853
242,940.3336828571544
243,2995.5106355674516
244,1420.2618139085694
245,2046.6533712610883
246,5657.3576795592035
247,2054.21811718348
248,479.52183879695167
249,1110.3512735645652
250,4813.472047708078
251,2652.5125818820206
252,2700.044081122801
253,815.3724805966032
254,1680.0054960953146
255,3519.36318309049
256,2548.9747786721236
257,2805.885665795201
258,865.4795153834522
259,1155.2898558128554
260,2473.5677105468594
261,1495.4532705153497
262,3096.1277309204893
263,2580.4562564530465
264,1198.828060314264
265,1509.968630493677
266,1035.2106965489993
267,3190.6964971992466
268,3974.602414112011
269,1086.0008826769506
270,1500.137890751949
271,2140.1650784649964
272,1813.4017450132042
273,2203.202867097969
274,2541.841087734049
275,1889.8920268151196
276,2062.566322477298
277,1336.6747855595968
278,2274.819936647262
279,3176.307826031173
280,3690.8723205975984
281,3139.4293803373635
282,1659.4246849869758
283,1768.4217621252585
284,3099.5798844486403
285,969.8500143344997
286,2389.57198291848
287,2275.582237610797
288,1869.6100151177159
289,2436.0171530781454
290,905.2673385835195
291,2279.6953269000555
292,1693.1219615633504
293,2695.6785625720454
294,4652.184063972157
295,2424.876386846377
296,2898.0003886008417
297,1978.5345146017853
298,2315.836521285109
299,2308.2452325094064
300,4115.762925110117
301,3911.8618566404703
302,3064.64483280931
303,1402.5399471745952
304,2076.6222452988263
305,3514.1972962444743
306,1078.0699974929712
307,2042.7564013846727
308,2228.7233836822907
309,2460.329554745133
310,1739.4416117548521
311,1344.26657495003
312,2691.3364718813045
313,1971.6103096219654
314,890.3544202408698
315,3032.467097222692
316,1644.7737874043191
317,3220.243732231643
318,1692.1972743958702
319,2611.7566433463303
320,1887.3873555411585
321,1678.942527792504
322,2700.4002519991386
323,3110.4810058295775
324,576.0840315961914
325,932.4365669611715
326,2595.3944118044715
327,931.2710409168141
328,3547.6864461593573
329,2157.106087787148
330,1287.0876905823668
331,568.0932449010709
332,3878.7651448116317
333,1422.4655745574837
334,3840.278823085571
335,2526.536665362725
336,656.7721256879869
337,432.40695280821757
338,721.8027797311665
339,1889.8791965451323
340,2581.6107304903753
341,2682.1823149291577
342,3058.8473778972834
343,5454.789333191413
344,3105.8157750565833
345,3406.831148469237
346,2289.6423492297813
347,4316.520294124763
348,5443.3707847344085
349,3735.791673189863
350,1857.4281377520065
351,1672.264507225943
352,1314.2045384454095
353,2872.8995755902856
354,1498.871052203066
355,1614.3796406343222
356,1325.2973360624603
357,2548.867215334695
358,2586.886620539629
359,5483.549334743344
360,1945.0126254820616
361,1373.4465963624582
362,735.9508763965144
363,4079.1556750847108
364,2882.5840345348283
365,1621.0345211024214
366,2530.5634596814252
367,1266.3975349061086
368,1611.291820515593
369,2486.5831638862014
370,2001.8629752516665
371,2440.569645082091
372,1538.8128087747625
373,2794.914910672313
374,905.6892391606117
375,3398.8908418789456
376,1122.3661618495435
377,1360.5958945593345
378,1057.3621471658896
379,1879.1444066765894
380,3039.0676542895853
381,698.6226897592461
382,3306.332447218909
383,1741.7228556999924
384,2352.12766283052
385,2381.882545652111
386,2367.007759967283
387,3685.247704241987
388,1624.4131150398434
389,2214.1446991472967
390,3181.906443617841
391,2375.0132910476373
392,1362.150420246529
393,1796.8763631571128
394,1715.8259466935565
395,2586.194776801419
396,2193.909334272949
397,1193.1547970333115
398,2125.729915810428
399,3766.2155552533354
400,789.0391081849483
401,4416.603924968255
402,1724.1510928774576
403,3657.5059074665023
404,1866.9130334292856
405,1188.266470598618
406,2445.8552666433206
407,3201.56534265617
408,1270.9071428863956
409,3258.5247315460415
410,2903.690096315885
411,968.2765165897753
412,1607.5935937515826
413,1693.1422711461432
414,1783.812810795635
415,3361.059929011072
416,651.0185845156805
417,649.2869587108083
418,1016.9414533614773
419,2577.893067548968
420,1135.2612624347107
421,798.5980929548914
422,1635.3036558471665
423,2798.448842899214
424,2275.4068629132857
425,1791.403615526081
426,2812.5579314140086
427,2721.676598120449
428,2673.9595185722615
429,1778.8754142418013
430,2248.419911274766
431,1866.9453046608792
432,2252.9466209309053
433,1017.8526118892328
434,1786.3075773264013
435,1734.938321484502
436,2493.074584191499
437,901.3426695694088
438,1081.3781583037558
439,1153.852527495077
440,1925.3565591995539
441,2000.8803809544272
442,1887.5225465521867
443,1344.7556958580212
444,452.8449580926624
445,3995.6119268117172
446,2008.440613954876
447,4996.401764460542
448,6283.918592232425
449,1423.7246884244537
450,1135.525384706124
451,3200.286664153797
452,1842.6236282771015
453,1988.6275484646128
454,2434.2039053756534
455,607.9829824241708
456,1772.8802257266002
457,2258.6818758457134
458,571.0256575062251
459,2278.860591363566
460,642.614640558595
461,1629.7217636967328
462,2815.8146469307244
463,1615.6941054162721
464,965.9874003104728
465,2995.573522820817
466,1402.5293012783418
467,1672.9426297014725
468,1703.2423860866777
469,1322.6166480445736
470,1311.0634956049962
471,1346.141591272631
472,3336.5792306032517
473,2681.5457392048797
474,3159.501354107194
475,2192.2981742725005
476,1343.340880892931
477,3370.6796649678763
478,2285.3547364708384
479,833.3129599345747
480,1979.3502082240766
481,711.0567629822665
482,2530.9296203276117
483,512.7786846387813
484,1506.8550719631007
485,742.8459510636485
486,1753.7882139499798
487,2867.0389967916512
488,1182.085394625748
489,2422.6053164052146
490,1831.5850714957894
491,2738.5258836323355
492,2783.7669516042756
493,2235.7265090995297
494,3983.7896615725253
495,1959.5147953862902
496,2841.5776164919066
497,1710.4324051936085
498,910.783649869648
499,1861.0329006320308
500,1616.072262899824
501,953.2594881262529
502,1654.7465632818305
503,858.7116533755451
504,4396.799213395061
505,2010.102602282799
506,3133.306133397221
507,1377.9545641076518
508,2540.2837734124055
509,2870.6451479741836
510,3699.9375128606207
511,2048.2942068877555
512,4014.1744781289767
513,1390.626034508322
514,2518.853105662248
515,1278.4780119068791
516,2406.83909030124
517,2949.0844533679324
518,1320.9003907236888
519,3930.034742666333
520,2688.441649691037
521,3021.5882192420136
522,1222.6996933899215
523,1565.476298017176
524,3823.2930500698685
525,1852.7334193361182
526,1251.8752602841826
527,1417.4047316447286
528,850.5211709049544
529,2444.925072944093
530,4174.106536218664
531,3508.2080064034903
532,788.3646868143827
533,3421.98919115988
534,1799.1884877925377
535,3242.013365423592
536,2386.2656644749995
537,1850.5632469896923
538,2485.1065707986277
539,2876.947343548694
540,1431.695042825349
541,2144.7905542325625
542,1887.3592833087253
543,2606.244661008767
544,1118.5230345658354
545,3188.8791799481237
546,3266.3402244518193
547,733.978744247165
548,1614.9409747544407
549,881.7624820203237
550,2328.457507705509
551,1335.7217363073219
552,2656.5860451472317
553,1359.9411997560953
554,3251.754362041247
555,1228.5987137349523
556,1644.4174620112606
557,2093.5552443622237
558,2170.576115315949
559,752.9106867897307
560,4923.423314012182
561,1757.8850148368394
562,3264.697365264331
563,3562.2945198300836
564,1877.2900840095003
565,1747.5039569104638
566,2643.186943690295
567,1333.7176738945961
568,1574.2996449609732
569,1415.9304754167229
570,2087.71884875947
571,2193.542421866438
572,2924.5537443237467
573,2688.711820271729
574,2785.74872305249
575,2697.7942629519966
576,1745.9367945381696
577,1486.6581563143523
578,2944.6491539877184
579,1857.9815317756031
580,2108.022302398575
581,1085.2916987955643
582,2312.3198839705465
583,3997.185968433466
584,901.2134984221254
585,1272.731731280923
586,1657.2050972838626
587,1571.4877019530204
588,2891.024939623434
589,6030.845661016062
590,1835.6443687028411
591,3533.79157238344
592,802.6629833570436
593,787.4845906306923
594,3592.597936304251
595,3590.7970715584493
596,2103.39408547057
597,639.6385169408439
598,1869.27014770044
599,1590.2141565986
600,327.0756096719562
601,2077.3965333055876
602,2062.9948216593702
603,882.3557013072175
604,3050.904326114545
605,4031.1259276597493
606,1182.3774788322778
607,2246.010947864066
608,5259.972409795925
609,515.0953599678706
610,757.9590775146435
611,1690.6040229265443
612,1939.1258763575324
613,1289.7750397862224
614,3540.025293874963
615,2802.066676284105
616,4069.558332414846
617,1719.5541544111882
618,1278.6585296641895
619,3084.258599841836
620,1892.6157296883548
621,1444.0320592704074
622,1621.9972841298923
623,1026.2603104560746
624,2269.015236486927
625,1892.3703741149352
626,1473.3524997020484
627,2353.306673828145
628,2678.5754611280495
629,3623.6151273361475
630,1066.1668311404537
631,3330.7007539522606
632,2915.440869490153
633,3972.493890332124
634,3939.5232675759257
635,705.8744299292806
636,1297.6634682679019
637,749.0723104541403
638,2593.096502595829
639,1806.840421047498
640,1522.515597922769
641,554.5255771163678
642,4444.048137233629
643,2208.2728191595506
644,1676.1218956499742
645,2186.6455843151066
646,946.8355576635565
647,535.3921256001441
648,477.316367224183
649,3229.8116605179193
650,3090.6959405724733
651,1068.8493619229773
652,2779.5398317254158
653,857.0970761291757
654,2835.1074911533806
655,1834.2911351918613
656,3342.554830527157
657,2463.162651330842
658,1374.1075861486827
659,911.5256738897949
660,3586.4003875494286
661,2808.9339784153262
662,1068.4318172181243
663,2016.5423274863588
664,1640.581938694291
665,5090.137044880861
666,403.50185287598026
667,2993.2289281733906
668,1595.9109406123125
669,1203.7731854416652
670,1644.9973747985866
671,1212.246737548271
672,1044.6912516197642
673,995.6679464538204
674,2480.71214955759
675,2029.7646595607166
676,3547.2533292832054
677,2386.6141632356384
678,1668.5938210886286
679,1989.2742464295297
680,1189.2805862210434
681,4741.149821057969
682,1931.4251623641405
683,333.348491741199
684,1357.1350362744831
685,2190.991920710437
686,1977.3536328162172
687,1986.438230466757
688,2351.9651756190633
689,2809.6279634884686
690,4040.5849908773775
691,2632.8894474091944
692,1836.2623659594133
693,1178.6907989002063
694,2328.536939469991
695,2321.962183016652
696,1681.494303534499
697,3206.259726767446
698,1581.9345448295874
699,3821.296046269856
700,3014.8339431841673
701,3477.841644585153
702,422.4944394515211
703,3183.0821934618225
704,2326.312914960905
705,1166.5958498108628
706,3914.254229373999
707,1348.8560302189467
708,2415.732807061401
709,2607.8399284331877
710,2486.7412141240943
711,1531.6334693413908
712,1892.9337511165568
713,1669.4110791152941
714,1855.728697980155
715,1529.4033296027148
716,1032.922181149055
717,1499.5523961248518
718,1925.7728129270631
719,1282.2104614128195
720,3877.9620345714243
721,2524.6351780204186
722,2167.733829753105
723,2133.680184428595
724,4677.770288760994
725,921.265991792287
726,1231.0364569842782
727,589.0222086028585
728,1649.406541117855
729,2945.281609446708
730,2595.0033807128393
731,377.8370524745578
732,2033.3108365144858
733,1691.7314025820926
734,2954.962626622107
735,6376.770295551818
736,2815.486447562307
737,1597.0753304652685
738,703.4818778617575
739,1379.3247283384903
740,2392.1635978213603
741,2616.189468341356
742,2680.201372001308
743,527.0514819901674
744,2232.2771851672205
745,2751.667820609224
746,3442.4030315466657
747,4112.422827215152
748,961.3561550441748
749,673.3717210783052
750,2782.3149080560665
751,1420.4371819697376
752,3159.980619568194
753,1149.580849103207
754,3010.8266495130943
755,1171.9916203399416
756,1184.0929883896138
757,898.8704176526262
758,1343.256399812595
759,5817.692872040613
760,2455.086781756816
761,875.9127848529688
762,2707.5349074113656
763,2409.8380605745706
764,2568.0027074172326
765,2528.4473796479474
766,2929.7882541832423
767,1339.6157815911026
768,729.95328151804
769,3267.322190862857
770,1416.5002038154805
771,1550.1204472386974
772,2550.0383886581058
773,1074.07723261189
774,1806.83031765021
775,4082.903166059011
776,3580.1912757065857
777,2482.2312101493335
778,2071.5271597724145
779,1566.1392776782282
780,3296.5565691981355
781,2122.3976480948595
782,546.9823991786617
783,2594.9309931667003
784,2981.3621504280636
785,4466.803759846788
786,2755.920332556935
787,677.5934439060393
788,990.2386311415671
789,1104.837017495291
790,1354.9843372859627
791,1186.16291385111
792,2242.8376791664
793,1453.020427414386
794,2146.0174113246794
795,3805.1749051691218
796,4173.7741001494105
797,1537.3835980147035
798,2313.1359026845134
799,2461.6288779035626
800,3330.362410260812
801,1044.482708030303
802,6978.6507637747945
803,2375.37209761255
804,1997.4217201744555
805,2614.6157793173165
806,1455.396250664278
807,1239.3974443355833
808,3305.8202273683655
809,4303.279029393836
810,2012.8177794416563
811,3277.692051710864
812,725.6607697748293
813,1768.5669393937683
814,2166.4326490897456
815,1044.906143087089
816,2850.639594255851
817,3631.9049398027605
818,793.3388833134509
819,2606.309583076821
820,2839.88090342327
821,1523.8426827211515
822,1303.4009610068576
823,3215.774071455162
824,3624.739543873436
825,2841.0654578546446
826,1572.2029872139913
827,1964.1366484608602
828,2605.8496457668307
829,1863.6451977818235
830,2196.469409264427
831,1940.0869596715597
832,2584.7722095606555
833,1632.2260577127458
834,1307.7268342238385
835,975.9682784565666
836,1153.0409467234572
837,616.1481074508243
838,662.3376411039586
839,3895.8161871402176
840,2141.695553063589
841,3462.1533378616655
842,2562.6145140836047
843,1563.3352632019744
844,2676.1241274195972
845,2004.8651410309799
846,3175.4828805610086
847,493.8452734252215
848,1548.1643442455504
849,1175.6001452280204
850,3608.952475093041
851,1167.202998802573
852,2553.4897912541605
853,2816.1248315813664
854,2148.576925711055
855,418.4527155047242
856,2511.8985320156726
857,1379.7869440501108
858,2732.1611341105427
859,1447.3538747169703
860,1728.1264866492272
861,4920.535649562375
862,2110.6732364118334
863,2894.4195803258585
864,3622.0116113841086
865,1460.1089756343013
866,2203.940986636825
867,1658.0322092755541
868,1959.9531938140092
869,1305.2997494268748
870,1628.0640388881725
871,3434.6707767352896
872,3062.5901148081875
873,1077.9812706945643
874,1294.5580571731457
875,2111.1543831040303
876,1369.9853553897267
877,1302.0550092165158
878,3150.736298291684
879,2461.1825694680433
880,845.8252617196187
881,975.0667940129126
882,1765.416275181829
883,1434.868736854644
884,2026.537330090207
885,1481.3080160450838
886,1547.1178727609915
887,2155.782448501822
888,3234.3511918582035
889,1367.16354375905
890,985.1316537035378
891,467.8871328714771
892,1175.2308243573102
893,1747.833790998432
894,1430.8998904583489
895,1632.0209464665338
896,2178.8934393080594
897,775.1611589005923
898,1027.8732115656933
899,1401.2580996109846
900,3183.337363960222
901,1886.3043140082204
902,2079.5920505840977
903,3472.3986271724525
904,2377.1670938147777
905,2556.923971482329
906,2960.983496929979
907,1504.3069584510285
908,1722.6865210147432
909,4769.685901458628
910,1998.9131235044229
911,5007.399104471208
912,795.5068371657171
913,3125.4124197852548
914,1029.238312758248
915,510.23502948420685
916,2776.8351570985037
917,1201.7845218721086
918,4167.83095099787
919,4121.418559034032
920,2809.7140633018616
921,958.1975006831822
922,2309.5331692248933
923,2396.5115976912302
924,1136.5661836142133
925,1849.3347907498144
926,582.9165588196868
927,2944.720039983642
928,1827.8253916126212
929,1399.3850851016705
930,1480.3109749463094
931,3302.8984079494585
932,1430.34867001017
933,876.3114534912644
934,949.3878534495171
935,2817.026630721139
936,1739.2760667788855
937,2059.655351154002
938,586.1140131028882
939,2091.6005186982093
940,3102.7993657756024
941,1757.1299836311634
942,3979.6937886372143
943,3612.932576280106
944,466.7325665526428
945,1191.6879848127571
946,1944.8392558127334
947,1752.280861366783
948,2291.473917667684
949,2271.111737360785
950,3469.0051890786294
951,2640.7520154961758
952,1073.9718269242394
953,503.9275482001121
954,2028.8236822196488
955,3969.9871557146257
956,2470.770250167771
957,1890.399635726328
958,2711.309537000927
959,2908.412830077001
960,1146.3121977153335
961,1854.1007127128883
962,1092.8326441386043
963,1938.1500432468815
964,3352.629947373389
965,2383.1156574123297
966,3787.736635631468
967,1046.0317560572657
968,851.4510473947424
969,1047.5449929477609
970,2220.003986423812
971,1917.6177038353685
972,2363.197536945283
973,1781.7045120886387
974,1046.5845833527894
975,1903.546612580653
976,1220.9864421840855
977,560.9780370900041
978,362.891886793299
979,820.9329465293001
980,2467.754307983183
981,1826.9350246075408
982,6422.982188338624
983,1311.1801783667731
984,1491.8229762120377
985,2538.7811537387825
986,867.9161711903771
987,544.1240284993169
988,3863.535565828058
989,3084.5576578171476
990,1920.4980505546116
991,2541.6677125732135
992,835.0333342664629
993,749.7696524827503
994,1346.9365887690822
995,1871.2578008758078
996,657.9905706024053
997,1253.8741307937148
998,3664.82578477952
999,2634.325168990663
1000,2282.2321146011495
1001,1000.1503508742388
1002,1147.3180376417174
1003,681.7401875555734
1004,1028.3797436514728
1005,2402.2397345426343
1006,1379.1105777562366
1007,2919.319886257701
1008,2681.9742804765333
1009,2818.784391167636
1010,4740.026281364725
1011,1349.1677904252901
1012,1881.9780651764752
1013,4141.0235743187495
1014,2189.2039546150795
1015,4486.5797672842555
1016,2108.4159191411654
1017,1247.3480836469773
1018,860.9973444342819
1019,3470.102104098294
1020,2597.0962780538403
1021,2313.4644195876654
1022,2533.1484900729483
1023,2798.4766137584606
1024,2476.586895869061
1025,2460.5840641884447
1026,3227.619876040218
1027,2575.373449663643
1028,1594.9068488778066
1029,1359.490567490352
1030,3210.379428935592
1031,3259.868207844059
1032,3044.927618929368
1033,1987.2394803242296
1034,614.1787232902528
1035,986.759717786064
1036,2810.8316497918877
1037,2322.666010140126
1038,3007.1428579409912
1039,1229.2335034376295
1040,1270.5276431485865
1041,5170.950718596376
1042,4062.837906744471
1043,862.5059588841099
1044,3405.8717199662606
1045,1856.7265998057114
1046,2983.263271741654
1047,1486.3219689443267
1048,3249.586718850752
1049,3155.8813902287893
1050,1599.4570826474392
1051,1309.0393003891609
1052,645.489302651713
1053,1661.582854555354
1054,4998.53666105067
1055,2458.4096944027733
1056,1279.671445592097
1057,4721.250072308131
1058,1180.8223295056887
1059,3671.172279987291
1060,1512.8272354701414
1061,3001.912703244191
1062,2643.619589010169
1063,2332.9064159289405
1064,1527.9394909534574
1065,332.0894763195472
1066,1548.0864081351117
1067,886.4179020024684
1068,2061.5762401813195
1069,476.00871116980437
1070,3666.7606773309244
1071,2459.7357134379617
1072,1632.2091707832913
1073,1456.6960875099956
1074,2560.4072419910567
1075,2775.419328312381
1076,2334.472308731228
1077,3155.4765940305138
1078,2769.3214497826284
1079,2296.3859048651298
1080,2322.570721245585
1081,3587.6481432805194
1082,953.2988954845744
1083,2553.507854198015
1084,1519.9363187202414
1085,1574.0194594864308
1086,1176.9643248418358
1087,3230.6974270568658
1088,2198.908361543334
1089,1950.3368065751586
1090,1014.1354088574014
1091,1583.730706894524
1092,3590.7143057257827
1093,1679.396630149896
1094,1221.139507157337
1095,845.9612987284937
1096,1213.99733924873
1097,1818.9067702026716
1098,2332.8028905066762
1099,2817.3825369787733
1100,2227.8058083387173
1101,2332.6024679343673
1102,305.7661955739754
1103,1904.7191957243342
1104,3793.0419401457384
1105,1593.9717094068938
1106,2282.4248616206687
1107,2314.7492262390024
1108,1713.8955263371367
1109,1579.1772397376167
1110,911.0800264067952
1111,315.2828441300047
1112,2590.068878323043
1113,748.630582996988
1114,1157.541406797197
1115,3494.3096085507686
1116,2633.5679167578096
1117,2349.8423966352057
1118,1189.036933184171
1119,4163.715676957112
1120,2539.749663704478
1121,2874.2266203124336
1122,1589.9304018194266
1123,2628.092407290799
1124,427.99374835691117
1125,433.14518539299337
1126,348.1244054975866
1127,956.9379951267119
1128,2164.6952056372984
1129,1361.2456846537398
1130,4247.224057981666
1131,1843.4800418654768
1132,1348.478173299519
1133,2800.9121421356663
1134,4219.58335242026
1135,1685.573404557408
1136,2086.068113781231
1137,874.0877606513651
1138,940.0035868755123
1139,3651.3947290902906
1140,1705.718126319829
1141,2971.6860370586232
1142,1355.9580167742965
1143,1300.0539552683406
1144,1844.1745722859346
1145,2184.0571144578225
1146,1551.3469011498812
1147,1647.490797461291
1148,163.80412367577182
1149,2730.6305528350063
1150,2489.221966349186
1151,1610.3213712199483
1152,1315.9123529499304
1153,2544.8675821205834
1154,2946.917723440693
1155,2431.4244888719295
1156,2296.8810633177463
1157,2561.8866759311036
1158,2066.967161790535
1159,3300.101487950499
1160,870.0250906711229
1161,1038.4655486580484
1162,1897.725016506842
1163,2887.9333915997686
1164,2812.4834283499476
1165,2843.462417429723
1166,2731.696065280612
1167,1371.1275530877615
1168,1798.0411113223117
1169,3264.3756320708944
1170,4039.5090565814585
1171,2699.903097226341
1172,1826.8719247003276
1173,2770.4264749010777
1174,1568.4968607338265
1175,1003.0993805752883
1176,2886.397165262354
1177,3373.5533251217685
1178,2510.648753620171
1179,1966.00399925261
1180,4302.50761046911
1181,1465.6729115465669
1182,1698.6066332827236
1183,3567.5546815736393
1184,2320.404286676804
1185,1000.3426434908558
1186,1508.0021159479468
1187,3492.9057985772915
1188,1698.0540954941976
1189,4110.330148854284
1190,2655.550151566626
1191,1148.755376593226
1192,703.8257799486285
1193,2186.502394376159
1194,1302.1079371722071
1195,2223.2714817656693
1196,1030.8517302329212
1197,948.8012093278418
1198,1504.9414666344449
1199,1549.2929954624676
1200,2990.0134840937517
1201,1548.0326658396734
1202,1442.6018201821275
1203,2492.611105454427
1204,1792.722641256484
1205,1902.389900300744
1206,2287.6777134600966
1207,2341.388788220698
1208,1570.0317902735533
1209,2166.557889323819
1210,747.3815440334018
1211,2294.5412704919872
1212,659.9232237467698
1213,1222.5744816556
1214,2123.758671821329
1215,3142.486387346062
1216,1849.6483698737334
1217,1135.9774781441201
1218,1639.8825936909523
1219,1040.5935451365679
1220,778.2499915357297
1221,558.0157237403264
1222,5112.08629427898
1223,1979.2876259157918
1224,2402.670061334615
1225,899.2901309593085
1226,3312.867337751899
1227,3524.994465954781
1228,1418.523146927224
1229,1786.7771256104659
1230,2561.053577719116
1231,414.20751845157395
1232,1924.845036763105
1233,3158.9299041105996
1234,3002.729083486409
1235,2009.5497525827836
1236,5412.814622572088
1237,2778.440553465054
1238,4279.279172036807
1239,649.9990091722341
1240,1027.7690118660103
1241,1896.436091278809
1242,1682.2902918964755
1243,1873.6288499894672
1244,4474.668195569712
1245,1730.216084989508
1246,2362.2816765820285
1247,2539.026284512059
1248,4103.382979605106
1249,1752.022966428537
1250,3361.1391299376455
1251,1803.5990659897786
1252,2100.674132958171
1253,867.5258902102922
1254,3223.000151012082
1255,1570.3292568837044
1256,3067.908912347801
1257,3784.8919629197603
1258,3261.140550692459
1259,2180.264401203495
1260,2535.5001155763744
1261,1097.3645561815483
1262,1883.2893902580354
1263,2399.3024575126924
1264,1241.948576500966
1265,2394.216958606027
1266,257.97381262234234
1267,1392.507271247207
1268,3102.143943915634
1269,375.64054407586417
1270,2660.257613964344
1271,4018.8279292309708
1272,1099.972567045136
1273,2018.1306752593869
1274,2584.83177502628
1275,2128.881287883808
1276,896.9763602750468
1277,1936.9651064927223
1278,3894.692880802744
1279,577.9332870637531
1280,4396.6918857283445
1281,3209.5560341653263
1282,3600.669837270408
1283,957.4680722396151
1284,3598.084186918157
1285,539.2599973567853
1286,3076.288495163468
1287,1763.4679027546474
1288,837.1365467543304
1289,2613.6958923919447
1290,1728.5432781468473
1291,2396.144126289554
1292,1888.900483174199
1293,1261.8998638673413
1294,2382.7676497781854
1295,4428.765793988836
1296,2340.278307034503
1297,5145.932839578593
1298,1059.5715020656357
1299,1014.6837243236149
1300,3457.858354410089
1301,2073.3300682013432
1302,898.33541407769
1303,4563.067254338115
1304,1636.0774036075345
1305,1957.3642084921878
1306,1624.5758487269093
1307,2004.3325516609375
1308,1275.1744557719087
1309,2733.8601110505133
1310,1741.3797990128144
1311,1363.399050014114
1312,2381.98543079156
1313,2167.381264688942
1314,719.5074060710934
1315,1294.8390018299779
1316,1116.2430661541064
1317,4581.136150407056
1318,2577.0866384956425
1319,1790.9700557056187
1320,1097.5542828029634
1321,2431.9506678713174
1322,722.8858694787324
1323,2311.0997973115327
1324,1899.077629182865
1325,852.2339650859981
1326,1527.939207099952
1327,2144.053164193331
1328,700.5530585281293
1329,1254.4234863874392
1330,2043.6318254433272
1331,4042.2008732951685
1332,2762.724184901008
1333,780.525047908181
1334,666.2980536941001
1335,1642.4178412468661
1336,2420.31483996806
1337,3150.676382314373
1338,2727.453707032973
1339,1605.007236743374
1340,2460.496221272533
1341,850.9779078247417
1342,687.356647807187
1343,631.2533857900072
1344,1215.2626021795618
1345,1053.5412083407355
1346,1602.1379919894798
1347,3287.896914338703
1348,2290.848919777846
1349,1053.7134507056403
1350,1109.094349724634
1351,2740.089998457761
1352,1637.4602278223756
1353,762.4595936849855
1354,1302.4899603273395
1355,431.63167962761077
1356,2898.37237249433
1357,1590.0141616318087
1358,526.9845823497112
1359,2160.5730948053533
1360,2135.2078936806756
1361,882.7391842248556
1362,1905.5703624007547
1363,2117.3341802191085
1364,1502.0472213489388
1365,3481.899658351176
1366,2102.9060946686745
1367,4408.65746523229
1368,5260.049809491046
1369,1970.2603517605812
1370,918.9819606582689
1371,1629.7298967616507
1372,2660.412412066846
1373,3097.1764167939846
1374,1858.5186999415052
1375,2637.4857760225914
1376,1825.2976292464652
1377,1273.5516753893573
1378,3564.546473409817
1379,1944.677452875964
1380,1607.6788069418935
1381,2444.122153288887
1382,2644.1788011905205
1383,1020.9570216688202
1384,3402.869471099562
1385,1431.0436646150133
1386,398.96817575252095
1387,2415.2751678281384
1388,2643.2340290145216
1389,3567.588544185066
1390,3636.33846398827
1391,2234.4396440223923
1392,2053.1707431948275
1393,3067.2767148469957
1394,4278.257826965077
1395,3286.967488955652
1396,1890.367862340814
1397,1916.0117222451606
1398,2105.911126584698
1399,5688.928628603377
1400,1829.5929010457494
1401,4545.4692308128615
1402,1614.8727157684984
1403,2133.490559928858
1404,621.5844509924809
1405,3429.0531953883115
1406,2477.708297214406
1407,2191.843476576905
1408,1268.3773792461545
1409,667.6793641077463
1410,2624.2659950157877
1411,2267.5694737504055
1412,1090.6285537292467
1413,2412.823873988848
1414,786.3908805617073
1415,2831.399699934274
1416,1439.8772474262262
1417,2960.012259754516
1418,1354.3407984395308
1419,3305.606534947586
1420,338.0312754252976
1421,3424.479731464575
1422,1983.8473706339255
1423,3504.980511681147
1424,3834.071484239695
1425,3201.402741467356
1426,1829.8397881521219
1427,2822.51525577502
1428,1522.1772045361656
1429,3723.983588184042
1430,596.333975655488
1431,918.3798074472578
1432,1033.4306258002446
1433,1399.468169722217
1434,2223.763964818849
1435,1754.333576704533
1436,2972.1213896053396
1437,3397.226126909515
1438,1458.779260631315
1439,1452.3782991820965
1440,1988.6009340368912
1441,4678.1931110658315
1442,1526.1411007204467
1443,2114.5222818711654
1444,1876.8846106459364
1445,2016.866539197891
1446,2263.5471443795545
1447,1819.6979896083296
1448,4621.646760573947
1449,2411.8637705422634
1450,1927.678814644704
1451,2468.693369000383
1452,2140.965732364792
1453,1917.3079409415932
1454,1946.2582544030035
1455,2636.7035382853505
1456,2355.213938828481
1457,2150.787789884109
1458,2346.689239825972
1459,1565.9635606427178
1460,1738.579447018674
1461,1327.1251531402356
1462,2675.629891864806
1463,1020.6331480455874
1464,3143.3581734055115
1465,1742.075344431221
1466,2712.2600768400844
1467,1722.9183853715601
1468,1362.7826272947877
1469,1705.5468780967888
1470,2116.0064058778703
1471,2070.8529365741374
1472,1978.1678849594007
1473,1030.2413283932788
1474,1279.1147998196416
1475,1196.257060698671
1476,610.3305630632458
1477,2722.1546647187447
1478,2124.9506538241812
1479,685.8857934247012
1480,2207.8070113626864
1481,3166.1176738514555
1482,1101.0785394208137
1483,2006.8974724580835
1484,2678.130912316028
1485,1897.241387506317
1486,1339.2933836784382
1487,1207.4792473948633
1488,2541.7308944652627
1489,1615.237574072547
1490,2798.749568793912
1491,1152.6440454167391
1492,593.2182239091818
1493,2311.0889481912445
1494,3101.6901637488977
1495,1467.6249725109185
1496,2035.9883932618209
1497,1005.2324181083361
1498,1930.3687176516746
1499,1611.7797386873142
1500,3430.2244439013452
1501,758.5396559814358
1502,1856.3489916632263
1503,1753.5979581450056
1504,875.1772988808001
1505,3575.178495933709
1506,2839.044790919659
1507,2127.3213370174612
1508,3426.0089204083015
1509,1561.3078938657416
1510,895.21000727075
1511,687.6098419540871
1512,2129.834542018647
1513,3430.054868120674
1514,297.8317843129654
1515,2289.9424031565495
1516,1350.3980491922573
1517,1906.1043461311435
1518,2744.5726090422995
1519,1923.0665440329954
1520,1387.8689345735324
1521,5928.874656404254
1522,4096.245900061388
1523,1482.3896439104083
1524,1581.9496278077047
1525,1973.459501214941
1526,2701.1050596158916
1527,2128.431467267409
1528,1318.7744288759338
1529,1215.8246198961194
1530,1951.1453900752545
1531,1797.6477357774215
1532,1208.3089825882287
1533,3590.0376868442995
1534,2517.0531233041356
1535,726.6522273258628
1536,1489.4083177956252
1537,2260.420123289766
1538,2175.413307195785
1539,1562.3406727343674
1540,2783.135738499248
1541,4909.966469543645
1542,1051.1212124038175
1543,1928.5589920747339
1544,1243.290030650101
1545,1747.0844390219806
1546,3407.983882741461
1547,1715.666591463862
1548,3500.14857643686
1549,3116.7861008996892
1550,2804.7907887398246
1551,1570.6223893960732
1552,1886.3035557005692
1553,3068.1240402504573
1554,4785.471727037666
1555,2575.2320076390843
1556,1760.9832903443446
1557,1705.823285245654
1558,1658.5051733035104
1559,520.2102175085047
1560,1084.00290149484
1561,1989.4986015311033
1562,3508.664521011821
1563,1276.3134483397375
1564,2923.3497661992637
1565,2918.058173418203
1566,1083.1406284846992
1567,1684.139022302517
1568,2180.302269897449
1569,2987.7254120998914
1570,657.8407229008058
1571,3382.8670319547987
1572,3050.5620374845957
1573,1336.084608435187
1574,1758.6236253397321
1575,2820.91230670734
1576,1667.1612531720014
1577,1525.6557502526548
1578,4504.759337015353
1579,592.0148261879348
1580,5881.803999716839
1581,1707.6013117915104
1582,2455.5590674958135
1583,1710.215883429151
1584,2821.85159652001
1585,3210.449782895095
1586,1250.5308860033094
1587,2749.5354914679106
1588,473.8530652419313
1589,788.1109961896128
1590,2937.5473045393524
1591,1077.7338051814038
1592,529.6480868867962
1593,2311.2309413672738
1594,639.1064226493563
1595,583.3439160192194
1596,1068.8342198846904
1597,1876.5428865094589
1598,1445.7672847324234
1599,1555.494108111682
1600,2438.581235565351
1601,1428.752186623762
1602,1670.8711806870015
1603,952.2083758338587
1604,3330.5346116432893
1605,2497.0539591766806
1606,815.866836220858
1607,2646.7675532612907
1608,3111.019053488543
1609,2218.4124919357387
1610,719.122527497369
1611,4733.38152502426
1612,787.8794950681098
1613,2503.4246011187474
1614,2276.8593829369615
1615,2198.92550296757
1616,2129.683797189072
1617,708.0705120956138
1618,984.9127934403672
1619,1496.0268536570723
1620,1743.9946488005796
1621,3059.7604862291446
1622,1309.3342881032113
1623,1180.8124470941395
1624,2535.000276374635
1625,260.0152495019967
1626,2286.2297052317986
1627,1384.5424338896448
1628,751.9826629424213
1629,2376.793444098245
1630,1173.0151874867809
1631,1011.3484457576028
1632,3352.869969118966
1633,1432.8286752198603
1634,2579.5683367205847
1635,2271.6811536866544
1636,2855.613088126879
1637,1275.9040517819785
1638,1862.7516604290045
1639,1288.1116238354673
1640,2401.7181039549646
1641,1564.591366103676
1642,1152.4903802260612
1643,4849.374166088095
1644,2132.6589096379
1645,3773.1095070405327
1646,2203.420968185875
1647,3460.243662675876
1648,2843.8799300633395
1649,1084.462352619905
1650,2666.0596878469255
1651,1770.898194763768
1652,3257.1664155316334
1653,5205.527054066797
1654,4516.459520863613
1655,2392.0869922276097
1656,1355.7575033148858
1657,1084.4544057546586
1658,827.2617603157635
1659,2100.4989115359035
1660,752.439730626173
1661,1242.9868976056998
1662,2234.88114892641
1663,1904.2075185182835
1664,2193.467985983841
1665,1093.3569714841312
1666,4482.260376282528
1667,3083.55683986525
1668,1471.7886575323223
1669,1830.0849226890216
1670,915.0630782013627
1671,2818.2909437525414
1672,786.153744394295
1673,5297.1612662105745
1674,1419.20149966091
1675,1990.105630109311
1676,3268.6923917332892
1677,2568.189762227994
1678,905.4773301688188
1679,2510.6492231638667
1680,1518.5980034912766
1681,815.5676443217577
1682,2888.995238865694
1683,2731.619071189125
1684,3171.508758455376
1685,1088.0164686189444
